…
#> NUTS sampler diagnostics:
#> 
#> No divergences, saturated max treedepths or low E-BFMIs.
#> 
#> Smallest bulk-ESS: 651 (sigma_nu_y_alpha)
#> Smallest tail-ESS: 853 (sigma_nu_y_alpha)
#> Largest Rhat: 1.01 (delta_y_y_lag1[2])
#> 
#> Elapsed time (seconds):
#>         warmup sample
#> chain:1  7.646  5.113
#> chain:2  8.010  4.943
#> 
#> Summary statistics of the time- and group-invariant parameters:
#> # A tibble: 113 × 10
#>    variable      mean median     sd    mad      q5   q95  rhat ess_bulk ess_tail
#>    <chr>        <dbl>  <dbl>  <dbl>  <dbl>   <dbl> <dbl> <dbl>    <dbl>    <dbl>
#>  1 alpha_y[2]  0.0577 0.0579 0.0321 0.0327 0.00492 0.110 1.000    2093.    1577.
#>  2 alpha_y[3]  0.0900 0.0908 0.0437 0.0437 0.0180  0.161 0.999    2148.    1681.
#>  3 alpha_y[4]  0.165  0.164  0.0390 0.0392 0.102   0.229 1.000    2301.    1644.
#>  4 alpha_y[5]  0.263  0.263  0.0377 0.0385 0.200   0.325 1.00     2342.    1505.
#>  5 alpha_y[6]  0.303  0.302  0.0365 0.0366 0.244   0.364 0.999    2439.    1573.
#>  6 alpha_y[7]  0.332  0.333  0.0399 0.0406 0.268   0.398 1.000    2123.    1573.
#>  7 alpha_y[8]  0.421  0.421  0.0364 0.0382 0.361   0.480 1.00     2160.    1475.
#>  8 alpha_y[9]  0.457  0.456  0.0400 0.0395 0.391   0.522 1.00     2090.    1797.
#>  9 alpha_y[10] 0.412  0.412  0.0421 0.0410 0.340   0.482 1.000    2159.    1760.
#> 10 alpha_y[11] 0.404  0.404  0.0404 0.0412 0.337   0.468 0.999    2036.    1756.
#> # ℹ 103 more rows
```
…
